{
    "1800": {
        "unclear": 689,
        "out": 586,
        "river": 528,
        "one": 510,
        "morning": 385,
        "killed": 385,
        "day": 381,
        "side": 365,
        "passed": 346,
        "set": 341
    },
    "1810": {
        "treaty": 362,
        "nation": 332,
        "cherokee": 294,
        "states": 279,
        "unclear": 271,
        "united": 233,
        "mr": 231,
        "one": 205,
        "shall": 202,
        "under": 198
    },
    "1820": {
        "nation": 346,
        "council": 322,
        "one": 264,
        "shall": 255,
        "cherokee": 246,
        "mr": 235,
        "committee": 234,
        "john": 217,
        "time": 186,
        "states": 180
    },
    "1830": {
        "cherokee": 1045,
        "mr": 850,
        "nation": 796,
        "john": 721,
        "people": 635,
        "letter": 601,
        "council": 582,
        "cherokees": 568,
        "states": 557,
        "general": 557
    },
    "1840": {
        "very": 1337,
        "one": 1026,
        "time": 974,
        "much": 960,
        "mr": 954,
        "letter": 909,
        "day": 883,
        "here": 823,
        "good": 820,
        "up": 799
    },
    "1850": {
        "very": 3610,
        "day": 2663,
        "one": 2324,
        "mr": 2259,
        "letter": 2151,
        "much": 2102,
        "here": 2101,
        "time": 2056,
        "last": 1909,
        "good": 1895
    },
    "1860": {
        "day": 6319,
        "mr": 6112,
        "went": 5986,
        "mrs": 5419,
        "very": 4604,
        "see": 3835,
        "children": 3475,
        "came": 3386,
        "well": 3371,
        "night": 3212
    },
    "1870": {
        "went": 4430,
        "mr": 4314,
        "day": 3883,
        "mrs": 3750,
        "very": 3066,
        "well": 2750,
        "out": 2317,
        "see": 2266,
        "came": 2081,
        "up": 2031
    },
    "1880": {
        "went": 1904,
        "opr": 1818,
        "very": 1134,
        "day": 1115,
        "chicago": 1091,
        "unclear": 1052,
        "today": 893,
        "pm": 882,
        "night": 852,
        "time": 848
    },
    "1890": {
        "office": 804,
        "letter": 697,
        "pm": 669,
        "very": 620,
        "home": 607,
        "ich": 565,
        "day": 531,
        "eve": 528,
        "baby": 441,
        "mama": 418
    },
    "1900": {
        "mrs": 5117,
        "mr": 2780,
        "badger": 1983,
        "day": 1378,
        "well": 1255,
        "very": 1147,
        "shreve": 1135,
        "went": 1113,
        "home": 840,
        "miss": 769
    },
    "1910": {
        "mrs": 579,
        "unclear": 361,
        "chicago": 320,
        "one": 279,
        "out": 224,
        "time": 186,
        "work": 185,
        "very": 182,
        "good": 181,
        "war": 178
    },
    "1920": {
        "one": 246,
        "very": 226,
        "out": 218,
        "time": 196,
        "mrs": 176,
        "letter": 166,
        "know": 155,
        "up": 149,
        "ill": 136,
        "new": 129
    },
    "1930": {
        "out": 156,
        "one": 147,
        "time": 130,
        "post": 128,
        "new": 119,
        "chicago": 116,
        "very": 114,
        "up": 113,
        "years": 106,
        "think": 89
    },
    "1940": {
        "very": 151,
        "mr": 144,
        "one": 128,
        "time": 126,
        "out": 117,
        "post": 107,
        "underlined": 106,
        "much": 106,
        "mrs": 100,
        "years": 99
    },
    "1950": {
        "jack": 104,
        "one": 95,
        "time": 77,
        "very": 73,
        "mrs": 71,
        "out": 70,
        "chicago": 70,
        "here": 66,
        "good": 57,
        "mr": 56
    },
    "1960": {
        "jack": 234,
        "one": 160,
        "mr": 157,
        "out": 148,
        "underlined": 144,
        "time": 142,
        "years": 138,
        "here": 115,
        "more": 114,
        "new": 112
    },
    "1970": {
        "jack": 161,
        "one": 114,
        "out": 91,
        "time": 83,
        "good": 81,
        "letter": 74,
        "chicago": 71,
        "up": 70,
        "margin": 70,
        "book": 70
    },
    "1980": {
        "jack": 121,
        "one": 57,
        "new": 57,
        "margin": 53,
        "time": 49,
        "good": 49,
        "pencil": 47,
        "year": 46,
        "top": 46,
        "hope": 42
    },
    "1990": {
        "july": 34,
        "paid": 14,
        "note": 14,
        "june": 12,
        "co": 12
    }
}