{
    "very": 41782,
    "one": 35613,
    "here": 27407,
    "time": 27345,
    "out": 26551,
    "good": 26326,
    "much": 26278,
    "day": 26156,
    "mr": 25244,
    "up": 24376,
    "well": 23081,
    "now": 22992,
    "went": 20425,
    "see": 20039,
    "think": 19957,
    "more": 19392,
    "mrs": 19272,
    "little": 19119,
    "home": 19055,
    "letter": 19015,
    "last": 18705,
    "go": 18024,
    "two": 17562,
    "know": 16730,
    "unclear": 16590,
    "before": 15165,
    "night": 15094,
    "came": 14964,
    "come": 14260,
    "write": 14227,
    "shall": 13623,
    "over": 13563,
    "down": 12877,
    "made": 12162,
    "new": 12150,
    "great": 12069,
    "morning": 11508,
    "long": 11354,
    "hope": 11331,
    "left": 11160,
    "better": 11138,
    "soon": 11077,
    "first": 10768,
    "house": 10710,
    "again": 10635,
    "many": 10563,
    "old": 10497,
    "love": 10460,
    "place": 10310,
    "man": 10304,
    "take": 10089,
    "make": 10017,
    "going": 9967,
    "upon": 9911,
    "men": 9882,
    "indians": 9787,
    "quite": 9754,
    "few": 9696,
    "such": 9563,
    "miles": 9400,
    "being": 9364,
    "days": 9195,
    "way": 8980,
    "week": 8977,
    "send": 8764,
    "today": 8721,
    "back": 8708,
    "mother": 8506,
    "three": 8350,
    "school": 8316,
    "people": 8136,
    "sent": 8063,
    "work": 7950,
    "took": 7932,
    "same": 7841,
    "found": 7817,
    "river": 7776,
    "next": 7750,
    "dont": 7571,
    "hear": 7461,
    "want": 7422,
    "tell": 7374,
    "children": 7340,
    "give": 7329,
    "called": 7295,
    "through": 7224,
    "right": 7070,
    "cold": 7067,
    "received": 6996,
    "another": 6983,
    "still": 6889,
    "those": 6827,
    "wish": 6778,
    "side": 6738,
    "thought": 6733,
    "feel": 6721,
    "father": 6649,
    "never": 6601,
    "having": 6576,
    "saw": 6535,
    "without": 6505,
    "evening": 6418,
    "away": 6373,
    "god": 6357,
    "john": 6346,
    "years": 6346,
    "mary": 6345,
    "glad": 6300,
    "water": 6177,
    "find": 6172,
    "yesterday": 6167,
    "gone": 6154,
    "best": 6130,
    "country": 6106,
    "miss": 5972,
    "year": 5950,
    "things": 5919,
    "put": 5843,
    "told": 5838,
    "nothing": 5803,
    "thing": 5787,
    "indian": 5767,
    "both": 5762,
    "part": 5737,
    "pleasant": 5640,
    "written": 5610,
    "und": 5520,
    "life": 5513,
    "along": 5509,
    "until": 5497,
    "wrote": 5497,
    "each": 5493,
    "pm": 5476,
    "near": 5461,
    "under": 5458,
    "large": 5436,
    "camp": 5420,
    "family": 5324,
    "heard": 5288,
    "dr": 5271,
    "weather": 5255,
    "fine": 5254,
    "pretty": 5228,
    "ich": 5225,
    "visit": 5207,
    "town": 5201,
    "sister": 5162,
    "chicago": 5142,
    "till": 5130,
    "present": 5064,
    "perhaps": 5049,
    "sunday": 5039,
    "church": 5037,
    "done": 5027,
    "sick": 4963,
    "getting": 4949,
    "several": 4927,
    "seems": 4926,
    "white": 4863,
    "taken": 4843,
    "read": 4838,
    "monday": 4825,
    "though": 4772,
    "course": 4754,
    "enough": 4738,
    "city": 4685,
    "far": 4682,
    "winter": 4682,
    "letters": 4632,
    "die": 4629,
    "myself": 4619,
    "general": 4616,
    "small": 4592,
    "believe": 4592,
    "friends": 4587,
    "weeks": 4567,
    "july": 4562,
    "saturday": 4538,
    "beautiful": 4514,
    "four": 4469,
    "hand": 4421,
    "writing": 4411,
    "keep": 4406,
    "health": 4405,
    "kind": 4405,
    "war": 4374,
    "hard": 4335,
    "half": 4325,
    "st": 4312,
    "money": 4299,
    "rain": 4276,
    "suppose": 4266,
    "brother": 4257,
    "seen": 4237,
    "during": 4227,
    "road": 4174,
    "even": 4173,
    "leave": 4150,
    "june": 4130,
    "friday": 4108,
    "coming": 4097,
    "around": 4092,
    "head": 4085,
    "once": 4069,
    "warm": 4067,
    "times": 4065,
    "ago": 4057,
    "land": 4054,
    "afternoon": 4036,
    "gave": 4005,
    "please": 3997,
    "fort": 3995,
    "pay": 3987,
    "others": 3984,
    "return": 3982,
    "wife": 3969,
    "business": 3942,
    "look": 3929,
    "room": 3924,
    "rest": 3895,
    "march": 3895,
    "young": 3874,
    "always": 3870,
    "arrived": 3867,
    "expect": 3859,
    "meeting": 3850,
    "office": 3849,
    "yours": 3820,
    "brought": 3819,
    "snow": 3819,
    "above": 3816,
    "etc": 3810,
    "care": 3789,
    "oclock": 3783,
    "something": 3780,
    "company": 3779,
    "high": 3761,
    "stay": 3756,
    "state": 3720,
    "spring": 3703,
    "returned": 3694,
    "crossed": 3670,
    "nice": 3656,
    "full": 3654,
    "summer": 3649,
    "west": 3645,
    "thursday": 3617,
    "party": 3613,
    "tuesday": 3565,
    "anna": 3563,
    "bad": 3558,
    "order": 3550,
    "badger": 3539,
    "passed": 3534,
    "help": 3505,
    "probably": 3494,
    "whole": 3486,
    "live": 3448,
    "five": 3443,
    "page": 3442,
    "wednesday": 3438,
    "friend": 3422,
    "short": 3374,
    "happy": 3374,
    "name": 3372,
    "between": 3348,
    "deal": 3339,
    "dinner": 3329,
    "nearly": 3324,
    "baby": 3322,
    "poor": 3317,
    "de": 3317,
    "set": 3308,
    "try": 3252,
    "sarah": 3197,
    "word": 3183,
    "started": 3180,
    "york": 3179,
    "making": 3158,
    "anything": 3153,
    "feet": 3136,
    "world": 3132,
    "fire": 3131,
    "ground": 3131,
    "call": 3118,
    "together": 3117,
    "ill": 3112,
    "words": 3090,
    "creek": 3083,
    "use": 3083,
    "case": 3030,
    "number": 3015,
    "top": 3009,
    "given": 2982,
    "tomorrow": 2979,
    "heart": 2963,
    "whether": 2954,
    "doing": 2946,
    "cousin": 2931,
    "sept": 2925,
    "mind": 2923,
    "boys": 2921,
    "past": 2919,
    "book": 2919,
    "against": 2886,
    "capt": 2884,
    "north": 2884,
    "paid": 2876,
    "end": 2861,
    "account": 2849,
    "red": 2848,
    "bed": 2846,
    "im": 2842,
    "himself": 2841,
    "der": 2835,
    "oct": 2825,
    "death": 2821,
    "states": 2812,
    "six": 2801,
    "la": 2798,
    "need": 2768,
    "ready": 2757,
    "used": 2755,
    "fall": 2748,
    "aunt": 2726,
    "april": 2723,
    "nation": 2687,
    "south": 2687,
    "zu": 2680,
    "died": 2664,
    "met": 2661,
    "post": 2660,
    "meet": 2657,
    "co": 2635,
    "east": 2625,
    "early": 2619,
    "clear": 2610,
    "note": 2605,
    "except": 2603,
    "charles": 2602,
    "isaac": 2594,
    "board": 2587,
    "seem": 2585,
    "late": 2583,
    "spent": 2570,
    "aug": 2563,
    "wind": 2561,
    "sorry": 2560,
    "felt": 2559,
    "ought": 2540,
    "point": 2536,
    "remember": 2536,
    "corn": 2535,
    "wood": 2521,
    "sure": 2517,
    "close": 2513,
    "nov": 2510,
    "month": 2509,
    "paper": 2502,
    "answer": 2502,
    "hardly": 2477,
    "looking": 2464,
    "ten": 2463,
    "mail": 2460,
    "dec": 2446,
    "lake": 2440,
    "months": 2434,
    "matter": 2411,
    "really": 2408,
    "horses": 2408,
    "killed": 2403,
    "son": 2401,
    "uncle": 2386,
    "possible": 2384,
    "sabbath": 2374,
    "light": 2374,
    "dollars": 2369,
    "horse": 2358,
    "wanted": 2345,
    "hundred": 2340,
    "themselves": 2339,
    "united": 2333,
    "seemed": 2330,
    "fear": 2316,
    "seven": 2312,
    "anxious": 2309,
    "usual": 2308,
    "talk": 2308,
    "remain": 2300,
    "cut": 2298,
    "line": 2285,
    "trouble": 2285,
    "enjoy": 2282,
    "council": 2280,
    "distance": 2268,
    "taking": 2267,
    "genl": 2264,
    "lost": 2261,
    "hours": 2261,
    "below": 2250,
    "eve": 2248,
    "bring": 2244,
    "ones": 2240,
    "per": 2225,
    "chief": 2215,
    "guess": 2215,
    "train": 2210,
    "jan": 2202,
    "interest": 2199,
    "sometimes": 2196,
    "boy": 2191,
    "jennie": 2182,
    "different": 2177,
    "sun": 2176,
    "alone": 2168,
    "thus": 2166,
    "eddie": 2165,
    "busy": 2157,
    "expected": 2139,
    "within": 2134,
    "big": 2133,
    "news": 2132,
    "girl": 2132,
    "lucy": 2125,
    "nicht": 2121,
    "black": 2121,
    "feeling": 2114,
    "hands": 2103,
    "du": 2096,
    "asked": 2093,
    "mit": 2087,
    "finished": 2083,
    "subject": 2079,
    "washington": 2079,
    "kept": 2078,
    "hour": 2075,
    "strong": 2073,
    "sat": 2071,
    "indeed": 2061,
    "es": 2031,
    "duty": 2029,
    "ask": 2027,
    "cant": 2023,
    "feb": 2022,
    "true": 2019,
    "col": 2018,
    "comes": 2005,
    "government": 2004,
    "sir": 2000,
    "report": 1994,
    "reached": 1971,
    "yourself": 1966,
    "less": 1958,
    "henry": 1953,
    "daughter": 1951,
    "reading": 1936,
    "knew": 1932,
    "ist": 1917,
    "everything": 1909,
    "storm": 1896,
    "recd": 1892,
    "heavy": 1892,
    "noon": 1891,
    "although": 1890,
    "power": 1886,
    "therefore": 1883,
    "body": 1883,
    "thinks": 1882,
    "following": 1876,
    "began": 1861,
    "receive": 1859,
    "mountains": 1857,
    "jack": 1857,
    "lord": 1854,
    "hot": 1853,
    "everett": 1852,
    "commenced": 1845,
    "girls": 1842,
    "means": 1842,
    "looks": 1828,
    "places": 1827,
    "fair": 1824,
    "boat": 1823,
    "especially": 1815,
    "ny": 1810,
    "fast": 1807,
    "margin": 1804,
    "trees": 1803,
    "von": 1801,
    "village": 1800,
    "cherokee": 1799,
    "belle": 1799,
    "start": 1797,
    "dark": 1797,
    "walk": 1794,
    "living": 1788,
    "hill": 1785,
    "lot": 1785,
    "army": 1784,
    "husband": 1779,
    "camped": 1779,
    "looked": 1777,
    "mile": 1777,
    "goes": 1777,
    "tonight": 1775,
    "sic": 1774,
    "woman": 1773,
    "green": 1771,
    "bought": 1769,
    "necessary": 1767,
    "women": 1765,
    "spend": 1763,
    "spirit": 1762,
    "second": 1758,
    "reason": 1751,
    "peace": 1749,
    "opr": 1745,
    "stop": 1744,
    "longer": 1743,
    "hotel": 1741,
    "ada": 1739,
    "fact": 1738,
    "street": 1735,
    "class": 1733,
    "run": 1729,
    "oh": 1725,
    "george": 1724,
    "folks": 1724,
    "known": 1720,
    "pleasure": 1718,
    "dress": 1706,
    "change": 1706,
    "purpose": 1704,
    "afraid": 1700,
    "bangor": 1699,
    "immediately": 1699,
    "august": 1694,
    "tired": 1690,
    "open": 1688,
    "enjoyed": 1688,
    "eat": 1684,
    "regard": 1674,
    "den": 1670,
    "service": 1659,
    "deep": 1655,
    "ride": 1652,
    "person": 1652,
    "towards": 1652,
    "manner": 1641,
    "officers": 1634,
    "become": 1634,
    "supper": 1633,
    "leaving": 1630,
    "round": 1626,
    "season": 1625,
    "grass": 1624,
    "english": 1619,
    "hold": 1619,
    "farm": 1617,
    "face": 1616,
    "none": 1615,
    "breakfast": 1615,
    "speak": 1609,
    "shreve": 1604,
    "thomas": 1601,
    "attend": 1599,
    "law": 1599,
    "truly": 1589,
    "books": 1581,
    "pleased": 1578,
    "dry": 1578,
    "plenty": 1578,
    "building": 1572,
    "lewis": 1572,
    "copy": 1571,
    "cool": 1571,
    "pass": 1569,
    "tea": 1567,
    "address": 1563,
    "lovely": 1562,
    "married": 1558,
    "ye": 1556,
    "turned": 1556,
    "didnt": 1556,
    "already": 1556,
    "hills": 1552,
    "obliged": 1552,
    "lines": 1552,
    "stone": 1550,
    "doubt": 1548,
    "makes": 1547,
    "joseph": 1541,
    "james": 1539,
    "thank": 1535,
    "society": 1529,
    "journey": 1522,
    "da\u00df": 1522,
    "trip": 1520,
    "christian": 1518,
    "agency": 1517,
    "entirely": 1516,
    "interesting": 1512,
    "show": 1512,
    "sweet": 1511,
    "wir": 1510,
    "further": 1509,
    "bright": 1508,
    "houses": 1507,
    "eyes": 1507,
    "president": 1504,
    "wait": 1503,
    "learn": 1502,
    "das": 1502,
    "certainly": 1502,
    "jane": 1494,
    "view": 1489,
    "certain": 1488,
    "form": 1487,
    "command": 1486,
    "opportunity": 1486,
    "boston": 1485,
    "lay": 1484,
    "eight": 1476,
    "comfortable": 1476,
    "front": 1474,
    "visited": 1470,
    "cause": 1468,
    "earth": 1468,
    "dead": 1467,
    "held": 1466,
    "san": 1464,
    "jones": 1457,
    "bank": 1454,
    "gen": 1454,
    "mine": 1453,
    "sleep": 1453,
    "affectionate": 1448,
    "considerable": 1443,
    "child": 1440,
    "generally": 1439,
    "twenty": 1436,
    "stream": 1435,
    "papers": 1428,
    "box": 1425,
    "covered": 1413,
    "real": 1412,
    "cloudy": 1412,
    "store": 1410,
    "stopped": 1406,
    "moved": 1406,
    "stand": 1400,
    "worth": 1399,
    "sit": 1396,
    "thinking": 1396,
    "kendall": 1389,
    "carried": 1385,
    "texas": 1382,
    "persons": 1379,
    "smith": 1378,
    "table": 1375,
    "hall": 1373,
    "forward": 1373,
    "charge": 1370,
    "sehr": 1365,
    "foot": 1362,
    "continued": 1361,
    "wm": 1360,
    "sell": 1356,
    "department": 1354,
    "judge": 1353,
    "lives": 1353,
    "thousand": 1352,
    "american": 1351,
    "trying": 1351,
    "quiet": 1351,
    "wont": 1349,
    "rev": 1348,
    "image": 1344,
    "chance": 1342,
    "mama": 1340,
    "whose": 1340,
    "grand": 1339,
    "samuel": 1335,
    "laid": 1331,
    "wishes": 1331,
    "besides": 1330,
    "lady": 1326,
    "trust": 1326,
    "county": 1326,
    "saying": 1324,
    "nature": 1324,
    "prayer": 1322,
    "reach": 1322,
    "sisters": 1321,
    "remained": 1320,
    "soldiers": 1319,
    "field": 1318,
    "ordered": 1315,
    "picture": 1313,
    "door": 1310,
    "mean": 1309,
    "waiting": 1308,
    "low": 1305,
    "unless": 1304,
    "chiefs": 1303,
    "mountain": 1300,
    "piece": 1299,
    "amount": 1290,
    "bye": 1286,
    "idea": 1284,
    "desire": 1283,
    "appearance": 1280,
    "french": 1279,
    "louis": 1279,
    "union": 1276,
    "act": 1276,
    "christ": 1275,
    "character": 1272,
    "bear": 1272,
    "agent": 1270,
    "blue": 1269,
    "built": 1268,
    "fever": 1267,
    "deer": 1267,
    "respectfully": 1266,
    "david": 1262,
    "eliab": 1257,
    "intended": 1256,
    "stayed": 1255,
    "mouth": 1254,
    "property": 1252,
    "ein": 1249,
    "charlie": 1247,
    "milo": 1246,
    "shot": 1242,
    "underlined": 1242,
    "giving": 1240,
    "air": 1239,
    "turn": 1239,
    "sold": 1239,
    "move": 1239,
    "major": 1238,
    "ft": 1237,
    "term": 1237,
    "fellow": 1236,
    "attended": 1236,
    "frank": 1236,
    "condition": 1234,
    "tried": 1234,
    "appeared": 1234,
    "question": 1234,
    "sight": 1233,
    "orders": 1230,
    "bottom": 1226,
    "hat": 1220,
    "common": 1218,
    "ourselves": 1216,
    "timber": 1216,
    "mich": 1216,
    "valley": 1215,
    "begin": 1211,
    "rained": 1210,
    "bei": 1210,
    "lived": 1209,
    "college": 1204,
    "safe": 1202,
    "rich": 1198,
    "officer": 1197,
    "christmas": 1196,
    "tree": 1196,
    "tho": 1195,
    "decided": 1194,
    "free": 1193,
    "troops": 1192,
    "due": 1190,
    "ladies": 1188,
    "ann": 1181,
    "wild": 1179,
    "wide": 1177,
    "walked": 1176,
    "woods": 1175,
    "date": 1175,
    "cherokees": 1174,
    "treaty": 1174,
    "thunder": 1173,
    "public": 1173,
    "auf": 1170,
    "court": 1169,
    "island": 1168,
    "remsen": 1167,
    "minutes": 1167,
    "understand": 1166,
    "seeing": 1165,
    "text": 1164,
    "illinois": 1163,
    "nach": 1162,
    "proper": 1156,
    "future": 1151,
    "attention": 1149,
    "lots": 1149,
    "spoke": 1148,
    "fell": 1147,
    "william": 1147,
    "excellent": 1146,
    "mir": 1144,
    "wished": 1142,
    "length": 1142,
    "western": 1141,
    "sending": 1141,
    "strength": 1141,
    "ive": 1139,
    "running": 1138,
    "brown": 1136,
    "settled": 1131,
    "music": 1129,
    "direct": 1128,
    "engaged": 1125,
    "wonder": 1124,
    "ohio": 1120,
    "national": 1118,
    "carry": 1117,
    "soul": 1117,
    "doctor": 1117,
    "clock": 1116,
    "auch": 1114,
    "utica": 1113,
    "cross": 1113,
    "rode": 1113,
    "lately": 1113,
    "thy": 1112,
    "mentioned": 1110,
    "sie": 1109,
    "abby": 1108,
    "rainy": 1107,
    "october": 1106,
    "takes": 1104,
    "circumstances": 1103,
    "opinion": 1102,
    "age": 1100,
    "flowers": 1098,
    "sea": 1096,
    "situation": 1095,
    "hair": 1095,
    "placed": 1095,
    "brothers": 1094,
    "ma": 1091,
    "struck": 1089,
    "pencil": 1088,
    "roads": 1087,
    "nine": 1086,
    "self": 1084,
    "cars": 1081,
    "garden": 1081,
    "buy": 1081,
    "appointed": 1079,
    "effect": 1077,
    "yes": 1076,
    "cost": 1076,
    "buffalo": 1074,
    "bill": 1074,
    "wie": 1074,
    "eva": 1072,
    "filled": 1072,
    "information": 1070,
    "moment": 1070,
    "continue": 1070,
    "instead": 1067,
    "rock": 1062,
    "somewhat": 1062,
    "park": 1061,
    "behind": 1061,
    "appear": 1061,
    "fully": 1059,
    "followed": 1056,
    "prairie": 1056,
    "january": 1052,
    "clothes": 1052,
    "working": 1051,
    "card": 1050,
    "comfort": 1049,
    "hunt": 1047,
    "story": 1046,
    "medicine": 1045,
    "depot": 1044,
    "finally": 1043,
    "broken": 1043,
    "que": 1043,
    "louisville": 1042,
    "lieut": 1041,
    "perfect": 1035,
    "inches": 1034,
    "dance": 1034,
    "informed": 1033,
    "became": 1033,
    "unto": 1032,
    "rate": 1031,
    "lizzie": 1028,
    "truth": 1028,
    "lands": 1027,
    "affairs": 1025,
    "gets": 1024,
    "nicely": 1023,
    "arthur": 1022,
    "price": 1021,
    "illegible": 1020,
    "strike": 1013,
    "cattle": 1011,
    "appears": 1010,
    "considered": 1004,
    "committee": 1001,
    "fathers": 1001,
    "faith": 999,
    "position": 999,
    "direction": 998,
    "priest": 998,
    "thanks": 997,
    "concluded": 997,
    "noch": 996,
    "september": 993,
    "leaves": 992,
    "williams": 991,
    "roberts": 989,
    "intend": 987,
    "principal": 986,
    "severe": 986,
    "kansas": 986,
    "presume": 983,
    "latter": 980,
    "history": 978,
    "robert": 975,
    "teacher": 975,
    "feelings": 974,
    "particularly": 974,
    "carriage": 974,
    "worse": 972,
    "willing": 971,
    "heaven": 971,
    "cynthia": 970,
    "sad": 967,
    "object": 967,
    "california": 965,
    "visiting": 960,
    "sheridan": 958,
    "notice": 956,
    "express": 956,
    "later": 956,
    "le": 955,
    "sometime": 954,
    "various": 952,
    "prepared": 951,
    "fight": 951,
    "stood": 951
}